 88%|███████████████████████████████████████████████████████████████████████▊          | 219/250 [8:17:17<1:09:02, 133.62s/it]219 --------------------------------------------------
training
epoch 219: (   0/92) 0.00008  (  0.0%) (6/6 correct) (0 false positive)
epoch 219: (   1/92) 0.00012  (  0.0%) (4/4 correct) (0 false positive)
epoch 219: (   2/92) 0.00006  (  0.0%) (5/5 correct) (0 false positive)
epoch 219: (   3/92) 0.00029  (  0.0%) (5/5 correct) (0 false positive)
epoch 219: (   4/92) 0.00069  (  0.1%) (4/4 correct) (0 false positive)
epoch 219: (   5/92) 0.00003  (  0.0%) (4/4 correct) (0 false positive)
epoch 219: (   6/92) 0.00013  (  0.0%) (4/4 correct) (0 false positive)
epoch 219: (   7/92) 0.00006  (  0.0%) (4/4 correct) (0 false positive)
epoch 219: (   8/92) 0.00017  (  0.0%) (5/5 correct) (0 false positive)
epoch 219: (   9/92) 0.00008  (  0.0%) (5/5 correct) (0 false positive)
epoch 219: (  10/92) 0.00071  (  0.1%) (4/4 correct) (0 false positive)
epoch 219: (  11/92) 0.00021  (  0.0%) (3/3 correct) (0 false positive)
epoch 219: (  12/92) 0.00003  (  0.0%) (4/4 correct) (0 false positive)
epoch 219: (  13/92) 0.00010  (  0.0%) (5/5 correct) (0 false positive)
epoch 219: (  14/92) 0.00004  (  0.0%) (4/4 correct) (0 false positive)
epoch 219: (  15/92) 0.00003  (  0.0%) (5/5 correct) (0 false positive)
epoch 219: (  16/92) 0.00011  (  0.0%) (5/5 correct) (0 false positive)
epoch 219: (  17/92) 0.00013  (  0.0%) (7/7 correct) (0 false positive)
epoch 219: (  18/92) 0.00034  (  0.0%) (5/5 correct) (0 false positive)
epoch 219: (  19/92) 0.00052  (  0.1%) (5/5 correct) (0 false positive)
epoch 219: (  20/92) 0.00009  (  0.0%) (5/5 correct) (0 false positive)
epoch 219: (  21/92) 0.00015  (  0.0%) (4/4 correct) (0 false positive)
epoch 219: (  22/92) 0.00004  (  0.0%) (4/4 correct) (0 false positive)
epoch 219: (  23/92) 0.00015  (  0.0%) (4/4 correct) (0 false positive)
epoch 219: (  24/92) 0.00001  (  0.0%) (4/4 correct) (0 false positive)
epoch 219: (  25/92) 0.00012  (  0.0%) (5/5 correct) (0 false positive)
epoch 219: (  26/92) 0.00078  (  0.1%) (4/4 correct) (0 false positive)
epoch 219: (  27/92) 0.00005  (  0.0%) (5/5 correct) (0 false positive)
epoch 219: (  28/92) 0.00023  (  0.0%) (4/4 correct) (0 false positive)
epoch 219: (  29/92) 0.00006  (  0.0%) (5/5 correct) (0 false positive)
epoch 219: (  30/92) 0.00018  (  0.0%) (8/8 correct) (0 false positive)
epoch 219: (  31/92) 0.00016  (  0.0%) (4/4 correct) (0 false positive)
epoch 219: (  32/92) 0.00006  (  0.0%) (4/4 correct) (0 false positive)
epoch 219: (  33/92) 0.00014  (  0.0%) (5/5 correct) (0 false positive)
epoch 219: (  34/92) 0.00542  (  0.5%) (3/3 correct) (0 false positive)
epoch 219: (  35/92) 0.00019  (  0.0%) (3/3 correct) (0 false positive)
epoch 219: (  36/92) 0.00019  (  0.0%) (6/6 correct) (0 false positive)
epoch 219: (  37/92) 0.00004  (  0.0%) (4/4 correct) (0 false positive)
epoch 219: (  38/92) 0.00032  (  0.0%) (5/5 correct) (0 false positive)
epoch 219: (  39/92) 0.00037  (  0.0%) (4/4 correct) (0 false positive)
epoch 219: (  40/92) 0.00027  (  0.0%) (4/4 correct) (0 false positive)
epoch 219: (  41/92) 0.00018  (  0.0%) (4/4 correct) (0 false positive)
epoch 219: (  42/92) 0.00240  (  0.2%) (3/3 correct) (0 false positive)
epoch 219: (  43/92) 0.00009  (  0.0%) (5/5 correct) (0 false positive)
epoch 219: (  44/92) 0.00027  (  0.0%) (4/4 correct) (0 false positive)
epoch 219: (  45/92) 0.00002  (  0.0%) (4/4 correct) (0 false positive)
epoch 219: (  46/92) 0.00817  (  0.8%) (2/2 correct) (0 false positive)
epoch 219: (  47/92) 0.00004  (  0.0%) (4/4 correct) (0 false positive)
epoch 219: (  48/92) 0.00015  (  0.0%) (5/5 correct) (0 false positive)
epoch 219: (  49/92) 0.00028  (  0.0%) (3/3 correct) (0 false positive)
epoch 219: (  50/92) 0.00440  (  0.4%) (4/4 correct) (1 false positive)
epoch 219: (  51/92) 0.00013  (  0.0%) (4/4 correct) (0 false positive)
epoch 219: (  52/92) 0.00007  (  0.0%) (6/6 correct) (0 false positive)
epoch 219: (  53/92) 0.00002  (  0.0%) (4/4 correct) (0 false positive)
epoch 219: (  54/92) 0.00302  (  0.3%) (3/3 correct) (0 false positive)
epoch 219: (  55/92) 0.00064  (  0.1%) (5/5 correct) (0 false positive)
epoch 219: (  56/92) 0.00052  (  0.1%) (5/5 correct) (0 false positive)
epoch 219: (  57/92) 0.00014  (  0.0%) (5/5 correct) (0 false positive)
epoch 219: (  58/92) 0.00007  (  0.0%) (4/4 correct) (0 false positive)
epoch 219: (  59/92) 0.00036  (  0.0%) (5/5 correct) (0 false positive)
epoch 219: (  60/92) 0.00005  (  0.0%) (7/7 correct) (0 false positive)
epoch 219: (  61/92) 0.00007  (  0.0%) (5/5 correct) (0 false positive)
epoch 219: (  62/92) 0.00004  (  0.0%) (5/5 correct) (0 false positive)
epoch 219: (  63/92) 0.00005  (  0.0%) (4/4 correct) (0 false positive)
epoch 219: (  64/92) 0.00004  (  0.0%) (4/4 correct) (0 false positive)
epoch 219: (  65/92) 0.00037  (  0.0%) (4/4 correct) (0 false positive)
epoch 219: (  66/92) 0.00066  (  0.1%) (5/5 correct) (0 false positive)
epoch 219: (  67/92) 0.00002  (  0.0%) (4/4 correct) (0 false positive)
epoch 219: (  68/92) 0.00000  (  0.0%) (4/4 correct) (0 false positive)
epoch 219: (  69/92) 0.00026  (  0.0%) (7/7 correct) (0 false positive)
epoch 219: (  70/92) 0.00141  (  0.1%) (3/3 correct) (0 false positive)
epoch 219: (  71/92) 0.00008  (  0.0%) (3/3 correct) (0 false positive)
epoch 219: (  72/92) 0.00019  (  0.0%) (5/5 correct) (0 false positive)
epoch 219: (  73/92) 0.00105  (  0.1%) (3/3 correct) (0 false positive)
epoch 219: (  74/92) 0.00002  (  0.0%) (4/4 correct) (0 false positive)
epoch 219: (  75/92) 0.00239  (  0.2%) (4/4 correct) (1 false positive)
epoch 219: (  76/92) 0.00014  (  0.0%) (4/4 correct) (0 false positive)
epoch 219: (  77/92) 0.00003  (  0.0%) (5/5 correct) (0 false positive)
epoch 219: (  78/92) 0.00009  (  0.0%) (5/5 correct) (0 false positive)
epoch 219: (  79/92) 0.00009  (  0.0%) (3/3 correct) (0 false positive)
epoch 219: (  80/92) 0.00206  (  0.2%) (3/3 correct) (0 false positive)
epoch 219: (  81/92) 0.00010  (  0.0%) (4/4 correct) (0 false positive)
epoch 219: (  82/92) 0.00008  (  0.0%) (4/4 correct) (0 false positive)
epoch 219: (  83/92) 0.00018  (  0.0%) (7/7 correct) (0 false positive)
epoch 219: (  84/92) 0.00007  (  0.0%) (3/3 correct) (0 false positive)
epoch 219: (  85/92) 0.00001  (  0.0%) (4/4 correct) (0 false positive)
epoch 219: (  86/92) 0.00008  (  0.0%) (5/5 correct) (0 false positive)
epoch 219: (  87/92) 0.00533  (  0.5%) (6/6 correct) (1 false positive)
epoch 219: (  88/92) 0.00054  (  0.1%) (4/4 correct) (0 false positive)
epoch 219: (  89/92) 0.00014  (  0.0%) (5/5 correct) (0 false positive)
epoch 219: (  90/92) 0.00024  (  0.0%) (5/5 correct) (0 false positive)
epoch 219: (  91/92) 0.00014  (  0.0%) (4/4 correct) (0 false positive)
Classified (89/92) correctly
testing
epoch 219: (   0/24) 0.02825  (  2.8%) (3/4 correct) (0 false positive)
epoch 219: (   1/24) 0.00437  (  0.4%) (4/4 correct) (1 false positive)
epoch 219: (   2/24) 0.00583  (  0.6%) (4/5 correct) (0 false positive)
epoch 219: (   3/24) 0.27802  ( 27.8%) (3/4 correct) (1 false positive)
epoch 219: (   4/24) 0.28025  ( 28.0%) (3/4 correct) (3 false positive)
epoch 219: (   5/24) 0.01334  (  1.3%) (4/4 correct) (2 false positive)
epoch 219: (   6/24) 0.00658  (  0.7%) (5/5 correct) (1 false positive)
epoch 219: (   7/24) 0.12816  ( 12.8%) (4/5 correct) (0 false positive)
epoch 219: (   8/24) 0.00493  (  0.5%) (5/5 correct) (0 false positive)
epoch 219: (   9/24) 0.28597  ( 28.6%) (4/4 correct) (4 false positive)
epoch 219: (  10/24) 0.21599  ( 21.6%) (4/4 correct) (3 false positive)
epoch 219: (  11/24) 0.02918  (  2.9%) (3/5 correct) (0 false positive)
epoch 219: (  12/24) 0.19609  ( 19.6%) (4/5 correct) (0 false positive)
epoch 219: (  13/24) 0.02220  (  2.2%) (2/4 correct) (0 false positive)
epoch 219: (  14/24) 0.00692  (  0.7%) (3/3 correct) (0 false positive)
epoch 219: (  15/24) 0.03336  (  3.3%) (5/5 correct) (1 false positive)
epoch 219: (  16/24) 0.14363  ( 14.4%) (2/4 correct) (1 false positive)
epoch 219: (  17/24) 0.20137  ( 20.1%) (3/3 correct) (3 false positive)
epoch 219: (  18/24) 0.03562  (  3.6%) (3/4 correct) (0 false positive)
epoch 219: (  19/24) 0.02833  (  2.8%) (3/4 correct) (0 false positive)
epoch 219: (  20/24) 0.31208  ( 31.2%) (3/3 correct) (5 false positive)
epoch 219: (  21/24) 0.08971  (  9.0%) (3/5 correct) (0 false positive)
epoch 219: (  22/24) 0.02653  (  2.7%) (1/4 correct) (2 false positive)
epoch 219: (  23/24) 0.00281  (  0.3%) (4/4 correct) (0 false positive)
Classified (3/24) correctly
