50%|█████████████████████████████████████████                                         | 125/250 [7:47:11<7:49:28, 225.35s/it]125 --------------------------------------------------
training
epoch 125: (   0/376) 0.00000  (  0.0%) (6/6 correct) (0 false positive)
epoch 125: (   1/376) 0.00001  (  0.0%) (5/5 correct) (0 false positive)
epoch 125: (   2/376) 0.00001  (  0.0%) (5/5 correct) (0 false positive)
epoch 125: (   3/376) 0.00000  (  0.0%) (5/5 correct) (0 false positive)
epoch 125: (   4/376) 0.00000  (  0.0%) (6/6 correct) (0 false positive)
epoch 125: (   5/376) 0.00003  (  0.0%) (5/5 correct) (0 false positive)
epoch 125: (   6/376) 0.00006  (  0.0%) (4/4 correct) (0 false positive)
epoch 125: (   7/376) 0.00000  (  0.0%) (5/5 correct) (0 false positive)
epoch 125: (   8/376) 0.00005  (  0.0%) (3/3 correct) (0 false positive)
epoch 125: (   9/376) 0.00000  (  0.0%) (5/5 correct) (0 false positive)
epoch 125: (  10/376) 0.00002  (  0.0%) (4/4 correct) (0 false positive)
epoch 125: (  11/376) 0.00001  (  0.0%) (4/4 correct) (0 false positive)
epoch 125: (  12/376) 0.00000  (  0.0%) (6/6 correct) (0 false positive)
epoch 125: (  13/376) 0.00000  (  0.0%) (6/6 correct) (0 false positive)
epoch 125: (  14/376) 0.00000  (  0.0%) (5/5 correct) (0 false positive)
epoch 125: (  15/376) 0.00001  (  0.0%) (4/4 correct) (0 false positive)
epoch 125: (  16/376) 0.00006  (  0.0%) (4/4 correct) (0 false positive)
epoch 125: (  17/376) 0.00002  (  0.0%) (5/5 correct) (0 false positive)
epoch 125: (  18/376) 0.00000  (  0.0%) (5/5 correct) (0 false positive)
epoch 125: (  19/376) 0.00001  (  0.0%) (5/5 correct) (0 false positive)
epoch 125: (  20/376) 0.00000  (  0.0%) (5/5 correct) (0 false positive)
epoch 125: (  21/376) 0.00001  (  0.0%) (5/5 correct) (0 false positive)
epoch 125: (  22/376) 0.00001  (  0.0%) (7/7 correct) (0 false positive)
epoch 125: (  23/376) 0.00000  (  0.0%) (6/6 correct) (0 false positive)
epoch 125: (  24/376) 0.00009  (  0.0%) (4/4 correct) (0 false positive)
epoch 125: (  25/376) 0.00001  (  0.0%) (5/5 correct) (0 false positive)
epoch 125: (  26/376) 0.00022  (  0.0%) (3/3 correct) (0 false positive)
epoch 125: (  27/376) 0.00002  (  0.0%) (5/5 correct) (0 false positive)
epoch 125: (  28/376) 0.00001  (  0.0%) (4/4 correct) (0 false positive)
epoch 125: (  29/376) 0.00002  (  0.0%) (5/5 correct) (0 false positive)
epoch 125: (  30/376) 0.00001  (  0.0%) (5/5 correct) (0 false positive)
epoch 125: (  31/376) 0.00001  (  0.0%) (5/5 correct) (0 false positive)
epoch 125: (  32/376) 0.00006  (  0.0%) (4/4 correct) (0 false positive)
epoch 125: (  33/376) 0.00000  (  0.0%) (5/5 correct) (0 false positive)
epoch 125: (  34/376) 0.00044  (  0.0%) (3/3 correct) (0 false positive)
epoch 125: (  35/376) 0.00001  (  0.0%) (4/4 correct) (0 false positive)
epoch 125: (  36/376) 0.00017  (  0.0%) (3/3 correct) (0 false positive)
epoch 125: (  37/376) 0.00004  (  0.0%) (4/4 correct) (0 false positive)
epoch 125: (  38/376) 0.00001  (  0.0%) (5/5 correct) (0 false positive)
epoch 125: (  39/376) 0.00000  (  0.0%) (5/5 correct) (0 false positive)
epoch 125: (  40/376) 0.00000  (  0.0%) (6/6 correct) (0 false positive)
epoch 125: (  41/376) 0.00028  (  0.0%) (3/3 correct) (0 false positive)
epoch 125: (  42/376) 0.00003  (  0.0%) (6/6 correct) (0 false positive)
epoch 125: (  43/376) 0.00002  (  0.0%) (5/5 correct) (0 false positive)
epoch 125: (  44/376) 0.00002  (  0.0%) (5/5 correct) (0 false positive)
epoch 125: (  45/376) 0.00001  (  0.0%) (5/5 correct) (0 false positive)
epoch 125: (  46/376) 0.00001  (  0.0%) (5/5 correct) (0 false positive)
epoch 125: (  47/376) 0.00000  (  0.0%) (6/6 correct) (0 false positive)
epoch 125: (  48/376) 0.00000  (  0.0%) (6/6 correct) (0 false positive)
epoch 125: (  49/376) 0.00000  (  0.0%) (6/6 correct) (0 false positive)
epoch 125: (  50/376) 0.00000  (  0.0%) (5/5 correct) (0 false positive)
epoch 125: (  51/376) 0.00001  (  0.0%) (5/5 correct) (0 false positive)
epoch 125: (  52/376) 0.00001  (  0.0%) (5/5 correct) (0 false positive)
epoch 125: (  53/376) 0.00002  (  0.0%) (4/4 correct) (0 false positive)
epoch 125: (  54/376) 0.00001  (  0.0%) (4/4 correct) (0 false positive)
epoch 125: (  55/376) 0.00000  (  0.0%) (6/6 correct) (0 false positive)
epoch 125: (  56/376) 0.00001  (  0.0%) (5/5 correct) (0 false positive)
epoch 125: (  57/376) 0.00000  (  0.0%) (4/4 correct) (0 false positive)
epoch 125: (  58/376) 0.00000  (  0.0%) (5/5 correct) (0 false positive)
epoch 125: (  59/376) 0.00001  (  0.0%) (4/4 correct) (0 false positive)
epoch 125: (  60/376) 0.00001  (  0.0%) (5/5 correct) (0 false positive)
epoch 125: (  61/376) 0.00002  (  0.0%) (4/4 correct) (0 false positive)
epoch 125: (  62/376) 0.00005  (  0.0%) (3/3 correct) (0 false positive)
epoch 125: (  63/376) 0.00001  (  0.0%) (7/7 correct) (0 false positive)
epoch 125: (  64/376) 0.00001  (  0.0%) (7/7 correct) (0 false positive)
epoch 125: (  65/376) 0.00178  (  0.2%) (4/4 correct) (0 false positive)
epoch 125: (  66/376) 0.00002  (  0.0%) (8/8 correct) (0 false positive)
epoch 125: (  67/376) 0.00001  (  0.0%) (5/5 correct) (0 false positive)
epoch 125: (  68/376) 0.00001  (  0.0%) (5/5 correct) (0 false positive)
epoch 125: (  69/376) 0.00002  (  0.0%) (4/4 correct) (0 false positive)
epoch 125: (  70/376) 0.00000  (  0.0%) (5/5 correct) (0 false positive)
epoch 125: (  71/376) 0.00002  (  0.0%) (7/7 correct) (0 false positive)
epoch 125: (  72/376) 0.00001  (  0.0%) (5/5 correct) (0 false positive)
epoch 125: (  73/376) 0.00006  (  0.0%) (5/5 correct) (0 false positive)
epoch 125: (  74/376) 0.00001  (  0.0%) (4/4 correct) (0 false positive)
epoch 125: (  75/376) 0.00001  (  0.0%) (5/5 correct) (0 false positive)
epoch 125: (  76/376) 0.00001  (  0.0%) (5/5 correct) (0 false positive)
epoch 125: (  77/376) 0.00001  (  0.0%) (5/5 correct) (0 false positive)
epoch 125: (  78/376) 0.00000  (  0.0%) (6/6 correct) (0 false positive)
epoch 125: (  79/376) 0.00021  (  0.0%) (3/3 correct) (0 false positive)
epoch 125: (  80/376) 0.00000  (  0.0%) (6/6 correct) (0 false positive)
epoch 125: (  81/376) 0.00001  (  0.0%) (5/5 correct) (0 false positive)
epoch 125: (  82/376) 0.00001  (  0.0%) (5/5 correct) (0 false positive)
epoch 125: (  83/376) 0.00001  (  0.0%) (5/5 correct) (0 false positive)
epoch 125: (  84/376) 0.00001  (  0.0%) (4/4 correct) (0 false positive)
epoch 125: (  85/376) 0.00006  (  0.0%) (4/4 correct) (0 false positive)
epoch 125: (  86/376) 0.00000  (  0.0%) (6/6 correct) (0 false positive)
epoch 125: (  87/376) 0.00000  (  0.0%) (5/5 correct) (0 false positive)
epoch 125: (  88/376) 0.00089  (  0.1%) (4/4 correct) (0 false positive)
epoch 125: (  89/376) 0.00000  (  0.0%) (5/5 correct) (0 false positive)
epoch 125: (  90/376) 0.00001  (  0.0%) (5/5 correct) (0 false positive)
epoch 125: (  91/376) 0.00002  (  0.0%) (7/7 correct) (0 false positive)
epoch 125: (  92/376) 0.00000  (  0.0%) (5/5 correct) (0 false positive)
epoch 125: (  93/376) 0.00100  (  0.1%) (2/2 correct) (0 false positive)
epoch 125: (  94/376) 0.00010  (  0.0%) (5/5 correct) (0 false positive)
epoch 125: (  95/376) 0.00000  (  0.0%) (6/6 correct) (0 false positive)
epoch 125: (  96/376) 0.00002  (  0.0%) (7/7 correct) (0 false positive)
epoch 125: (  97/376) 0.00000  (  0.0%) (6/6 correct) (0 false positive)
epoch 125: (  98/376) 0.00096  (  0.1%) (2/2 correct) (0 false positive)
epoch 125: (  99/376) 0.00000  (  0.0%) (6/6 correct) (0 false positive)
epoch 125: ( 100/376) 0.00003  (  0.0%) (5/5 correct) (0 false positive)
epoch 125: ( 101/376) 0.00002  (  0.0%) (4/4 correct) (0 false positive)
epoch 125: ( 102/376) 0.00010  (  0.0%) (3/3 correct) (0 false positive)
epoch 125: ( 103/376) 0.00001  (  0.0%) (5/5 correct) (0 false positive)
epoch 125: ( 104/376) 0.00012  (  0.0%) (5/5 correct) (0 false positive)
epoch 125: ( 105/376) 0.00000  (  0.0%) (5/5 correct) (0 false positive)
epoch 125: ( 106/376) 0.00001  (  0.0%) (5/5 correct) (0 false positive)
epoch 125: ( 107/376) 0.00032  (  0.0%) (5/5 correct) (0 false positive)
epoch 125: ( 108/376) 0.00007  (  0.0%) (4/4 correct) (0 false positive)
epoch 125: ( 109/376) 0.00000  (  0.0%) (5/5 correct) (0 false positive)
epoch 125: ( 110/376) 0.00081  (  0.1%) (3/3 correct) (0 false positive)
epoch 125: ( 111/376) 0.00001  (  0.0%) (5/5 correct) (0 false positive)
epoch 125: ( 112/376) 0.00003  (  0.0%) (4/4 correct) (0 false positive)
epoch 125: ( 113/376) 0.00000  (  0.0%) (5/5 correct) (0 false positive)
epoch 125: ( 114/376) 0.00005  (  0.0%) (3/3 correct) (0 false positive)
epoch 125: ( 115/376) 0.00001  (  0.0%) (4/4 correct) (0 false positive)
epoch 125: ( 116/376) 0.00000  (  0.0%) (6/6 correct) (0 false positive)
epoch 125: ( 117/376) 0.00004  (  0.0%) (5/5 correct) (0 false positive)
epoch 125: ( 118/376) 0.00000  (  0.0%) (5/5 correct) (0 false positive)
epoch 125: ( 119/376) 0.00056  (  0.1%) (3/3 correct) (0 false positive)
epoch 125: ( 120/376) 0.00016  (  0.0%) (3/3 correct) (0 false positive)
epoch 125: ( 121/376) 0.00000  (  0.0%) (5/5 correct) (0 false positive)
epoch 125: ( 122/376) 0.00008  (  0.0%) (5/5 correct) (0 false positive)
epoch 125: ( 123/376) 0.00006  (  0.0%) (4/4 correct) (0 false positive)
epoch 125: ( 124/376) 0.00001  (  0.0%) (5/5 correct) (0 false positive)
epoch 125: ( 125/376) 0.00017  (  0.0%) (5/5 correct) (0 false positive)
epoch 125: ( 126/376) 0.00001  (  0.0%) (7/7 correct) (0 false positive)
epoch 125: ( 127/376) 0.00000  (  0.0%) (5/5 correct) (0 false positive)
epoch 125: ( 128/376) 0.00001  (  0.0%) (5/5 correct) (0 false positive)
epoch 125: ( 129/376) 0.00002  (  0.0%) (4/4 correct) (0 false positive)
epoch 125: ( 130/376) 0.00008  (  0.0%) (4/4 correct) (0 false positive)
epoch 125: ( 131/376) 0.00000  (  0.0%) (5/5 correct) (0 false positive)
epoch 125: ( 132/376) 0.00001  (  0.0%) (5/5 correct) (0 false positive)
epoch 125: ( 133/376) 0.00001  (  0.0%) (5/5 correct) (0 false positive)
epoch 125: ( 134/376) 0.00001  (  0.0%) (5/5 correct) (0 false positive)
epoch 125: ( 135/376) 0.00001  (  0.0%) (5/5 correct) (0 false positive)
epoch 125: ( 136/376) 0.00000  (  0.0%) (6/6 correct) (0 false positive)
epoch 125: ( 137/376) 0.00005  (  0.0%) (4/4 correct) (0 false positive)
epoch 125: ( 138/376) 0.00000  (  0.0%) (6/6 correct) (0 false positive)
epoch 125: ( 139/376) 0.00000  (  0.0%) (6/6 correct) (0 false positive)
epoch 125: ( 140/376) 0.00002  (  0.0%) (4/4 correct) (0 false positive)
epoch 125: ( 141/376) 0.00036  (  0.0%) (5/5 correct) (0 false positive)
epoch 125: ( 142/376) 0.00006  (  0.0%) (5/5 correct) (0 false positive)
epoch 125: ( 143/376) 0.00006  (  0.0%) (5/5 correct) (0 false positive)
epoch 125: ( 144/376) 0.00001  (  0.0%) (5/5 correct) (0 false positive)
epoch 125: ( 145/376) 0.00000  (  0.0%) (6/6 correct) (0 false positive)
epoch 125: ( 146/376) 0.00000  (  0.0%) (6/6 correct) (0 false positive)
epoch 125: ( 147/376) 0.00000  (  0.0%) (5/5 correct) (0 false positive)
epoch 125: ( 148/376) 0.00000  (  0.0%) (5/5 correct) (0 false positive)
epoch 125: ( 149/376) 0.00001  (  0.0%) (5/5 correct) (0 false positive)
epoch 125: ( 150/376) 0.00002  (  0.0%) (4/4 correct) (0 false positive)
epoch 125: ( 151/376) 0.00001  (  0.0%) (4/4 correct) (0 false positive)
epoch 125: ( 152/376) 0.00000  (  0.0%) (6/6 correct) (0 false positive)
epoch 125: ( 153/376) 0.00001  (  0.0%) (5/5 correct) (0 false positive)
epoch 125: ( 154/376) 0.00001  (  0.0%) (5/5 correct) (0 false positive)
epoch 125: ( 155/376) 0.00006  (  0.0%) (4/4 correct) (0 false positive)
epoch 125: ( 156/376) 0.00000  (  0.0%) (5/5 correct) (0 false positive)
epoch 125: ( 157/376) 0.00005  (  0.0%) (4/4 correct) (0 false positive)
epoch 125: ( 158/376) 0.00000  (  0.0%) (5/5 correct) (0 false positive)
epoch 125: ( 159/376) 0.00001  (  0.0%) (5/5 correct) (0 false positive)
epoch 125: ( 160/376) 0.00001  (  0.0%) (5/5 correct) (0 false positive)
epoch 125: ( 161/376) 0.00000  (  0.0%) (5/5 correct) (0 false positive)
epoch 125: ( 162/376) 0.00001  (  0.0%) (4/4 correct) (0 false positive)
epoch 125: ( 163/376) 0.00001  (  0.0%) (5/5 correct) (0 false positive)
epoch 125: ( 164/376) 0.00001  (  0.0%) (5/5 correct) (0 false positive)
epoch 125: ( 165/376) 0.00001  (  0.0%) (5/5 correct) (0 false positive)
epoch 125: ( 166/376) 0.00001  (  0.0%) (5/5 correct) (0 false positive)
epoch 125: ( 167/376) 0.00000  (  0.0%) (6/6 correct) (0 false positive)
epoch 125: ( 168/376) 0.00007  (  0.0%) (4/4 correct) (0 false positive)
epoch 125: ( 169/376) 0.00004  (  0.0%) (4/4 correct) (0 false positive)
epoch 125: ( 170/376) 0.00003  (  0.0%) (4/4 correct) (0 false positive)
epoch 125: ( 171/376) 0.00000  (  0.0%) (5/5 correct) (0 false positive)
epoch 125: ( 172/376) 0.00003  (  0.0%) (4/4 correct) (0 false positive)
epoch 125: ( 173/376) 0.00001  (  0.0%) (5/5 correct) (0 false positive)
epoch 125: ( 174/376) 0.00002  (  0.0%) (4/4 correct) (0 false positive)
epoch 125: ( 175/376) 0.00001  (  0.0%) (5/5 correct) (0 false positive)
epoch 125: ( 176/376) 0.00001  (  0.0%) (5/5 correct) (0 false positive)
epoch 125: ( 177/376) 0.00001  (  0.0%) (5/5 correct) (0 false positive)
epoch 125: ( 178/376) 0.00000  (  0.0%) (5/5 correct) (0 false positive)
epoch 125: ( 179/376) 0.00012  (  0.0%) (4/4 correct) (0 false positive)
epoch 125: ( 180/376) 0.00001  (  0.0%) (7/7 correct) (0 false positive)
epoch 125: ( 181/376) 0.00001  (  0.0%) (5/5 correct) (0 false positive)
epoch 125: ( 182/376) 0.00000  (  0.0%) (6/6 correct) (0 false positive)
epoch 125: ( 183/376) 0.00001  (  0.0%) (4/4 correct) (0 false positive)
epoch 125: ( 184/376) 0.00000  (  0.0%) (5/5 correct) (0 false positive)
epoch 125: ( 185/376) 0.00001  (  0.0%) (5/5 correct) (0 false positive)
epoch 125: ( 186/376) 0.00000  (  0.0%) (5/5 correct) (0 false positive)
epoch 125: ( 187/376) 0.00000  (  0.0%) (6/6 correct) (0 false positive)
epoch 125: ( 188/376) 0.00000  (  0.0%) (6/6 correct) (0 false positive)
epoch 125: ( 189/376) 0.00002  (  0.0%) (7/7 correct) (0 false positive)
epoch 125: ( 190/376) 0.00000  (  0.0%) (5/5 correct) (0 false positive)
epoch 125: ( 191/376) 0.00001  (  0.0%) (5/5 correct) (0 false positive)
epoch 125: ( 192/376) 0.00000  (  0.0%) (5/5 correct) (0 false positive)
epoch 125: ( 193/376) 0.00002  (  0.0%) (5/5 correct) (0 false positive)
epoch 125: ( 194/376) 0.00001  (  0.0%) (4/4 correct) (0 false positive)
epoch 125: ( 195/376) 0.00000  (  0.0%) (5/5 correct) (0 false positive)
epoch 125: ( 196/376) 0.00000  (  0.0%) (5/5 correct) (0 false positive)
epoch 125: ( 197/376) 0.00002  (  0.0%) (7/7 correct) (0 false positive)
epoch 125: ( 198/376) 0.00002  (  0.0%) (4/4 correct) (0 false positive)
epoch 125: ( 199/376) 0.00000  (  0.0%) (5/5 correct) (0 false positive)
epoch 125: ( 200/376) 0.00000  (  0.0%) (6/6 correct) (0 false positive)
epoch 125: ( 201/376) 0.00001  (  0.0%) (5/5 correct) (0 false positive)
epoch 125: ( 202/376) 0.00000  (  0.0%) (6/6 correct) (0 false positive)
epoch 125: ( 203/376) 0.00001  (  0.0%) (5/5 correct) (0 false positive)
epoch 125: ( 204/376) 0.00000  (  0.0%) (4/4 correct) (0 false positive)
epoch 125: ( 205/376) 0.00000  (  0.0%) (5/5 correct) (0 false positive)
epoch 125: ( 206/376) 0.00000  (  0.0%) (6/6 correct) (0 false positive)
epoch 125: ( 207/376) 0.00000  (  0.0%) (6/6 correct) (0 false positive)
epoch 125: ( 208/376) 0.00000  (  0.0%) (4/4 correct) (0 false positive)
epoch 125: ( 209/376) 0.00002  (  0.0%) (4/4 correct) (0 false positive)
epoch 125: ( 210/376) 0.00001  (  0.0%) (5/5 correct) (0 false positive)
epoch 125: ( 211/376) 0.00001  (  0.0%) (7/7 correct) (0 false positive)
epoch 125: ( 212/376) 0.00005  (  0.0%) (4/4 correct) (0 false positive)
epoch 125: ( 213/376) 0.00001  (  0.0%) (5/5 correct) (0 false positive)
epoch 125: ( 214/376) 0.00001  (  0.0%) (5/5 correct) (0 false positive)
epoch 125: ( 215/376) 0.00000  (  0.0%) (5/5 correct) (0 false positive)
epoch 125: ( 216/376) 0.00001  (  0.0%) (5/5 correct) (0 false positive)
epoch 125: ( 217/376) 0.00000  (  0.0%) (4/4 correct) (0 false positive)
epoch 125: ( 218/376) 0.00000  (  0.0%) (5/5 correct) (0 false positive)
epoch 125: ( 219/376) 0.00005  (  0.0%) (4/4 correct) (0 false positive)
epoch 125: ( 220/376) 0.00003  (  0.0%) (4/4 correct) (0 false positive)
epoch 125: ( 221/376) 0.00000  (  0.0%) (4/4 correct) (0 false positive)
epoch 125: ( 222/376) 0.00001  (  0.0%) (7/7 correct) (0 false positive)
epoch 125: ( 223/376) 0.00000  (  0.0%) (5/5 correct) (0 false positive)
epoch 125: ( 224/376) 0.00001  (  0.0%) (5/5 correct) (0 false positive)
epoch 125: ( 225/376) 0.00004  (  0.0%) (4/4 correct) (0 false positive)
epoch 125: ( 226/376) 0.00000  (  0.0%) (6/6 correct) (0 false positive)
epoch 125: ( 227/376) 0.00000  (  0.0%) (6/6 correct) (0 false positive)
epoch 125: ( 228/376) 0.00000  (  0.0%) (5/5 correct) (0 false positive)
epoch 125: ( 229/376) 0.00000  (  0.0%) (5/5 correct) (0 false positive)
epoch 125: ( 230/376) 0.00000  (  0.0%) (5/5 correct) (0 false positive)
epoch 125: ( 231/376) 0.00000  (  0.0%) (5/5 correct) (0 false positive)
epoch 125: ( 232/376) 0.00000  (  0.0%) (6/6 correct) (0 false positive)
epoch 125: ( 233/376) 0.00020  (  0.0%) (5/5 correct) (0 false positive)
epoch 125: ( 234/376) 0.00000  (  0.0%) (6/6 correct) (0 false positive)
epoch 125: ( 235/376) 0.00002  (  0.0%) (4/4 correct) (0 false positive)
epoch 125: ( 236/376) 0.00000  (  0.0%) (5/5 correct) (0 false positive)
epoch 125: ( 237/376) 0.00000  (  0.0%) (5/5 correct) (0 false positive)
epoch 125: ( 238/376) 0.00000  (  0.0%) (5/5 correct) (0 false positive)
epoch 125: ( 239/376) 0.00003  (  0.0%) (4/4 correct) (0 false positive)
epoch 125: ( 240/376) 0.00001  (  0.0%) (5/5 correct) (0 false positive)
epoch 125: ( 241/376) 0.00001  (  0.0%) (5/5 correct) (0 false positive)
epoch 125: ( 242/376) 0.00002  (  0.0%) (4/4 correct) (0 false positive)
epoch 125: ( 243/376) 0.00000  (  0.0%) (6/6 correct) (0 false positive)
epoch 125: ( 244/376) 0.00000  (  0.0%) (5/5 correct) (0 false positive)
epoch 125: ( 245/376) 0.00000  (  0.0%) (4/4 correct) (0 false positive)
epoch 125: ( 246/376) 0.00000  (  0.0%) (6/6 correct) (0 false positive)
epoch 125: ( 247/376) 0.00006  (  0.0%) (5/5 correct) (0 false positive)
epoch 125: ( 248/376) 0.00000  (  0.0%) (5/5 correct) (0 false positive)
epoch 125: ( 249/376) 0.00007  (  0.0%) (3/3 correct) (0 false positive)
epoch 125: ( 250/376) 0.00005  (  0.0%) (3/3 correct) (0 false positive)
epoch 125: ( 251/376) 0.00000  (  0.0%) (5/5 correct) (0 false positive)
epoch 125: ( 252/376) 0.00000  (  0.0%) (5/5 correct) (0 false positive)
epoch 125: ( 253/376) 0.00022  (  0.0%) (5/5 correct) (0 false positive)
epoch 125: ( 254/376) 0.00000  (  0.0%) (5/5 correct) (0 false positive)
epoch 125: ( 255/376) 0.00001  (  0.0%) (5/5 correct) (0 false positive)
epoch 125: ( 256/376) 0.00000  (  0.0%) (6/6 correct) (0 false positive)
epoch 125: ( 257/376) 0.00048  (  0.0%) (3/3 correct) (0 false positive)
epoch 125: ( 258/376) 0.00004  (  0.0%) (4/4 correct) (0 false positive)
epoch 125: ( 259/376) 0.00004  (  0.0%) (4/4 correct) (0 false positive)
epoch 125: ( 260/376) 0.00002  (  0.0%) (4/4 correct) (0 false positive)
epoch 125: ( 261/376) 0.00001  (  0.0%) (7/7 correct) (0 false positive)
epoch 125: ( 262/376) 0.00000  (  0.0%) (5/5 correct) (0 false positive)
epoch 125: ( 263/376) 0.00000  (  0.0%) (5/5 correct) (0 false positive)
epoch 125: ( 264/376) 0.00003  (  0.0%) (6/6 correct) (0 false positive)
epoch 125: ( 265/376) 0.00000  (  0.0%) (5/5 correct) (0 false positive)
epoch 125: ( 266/376) 0.00002  (  0.0%) (4/4 correct) (0 false positive)
epoch 125: ( 267/376) 0.00000  (  0.0%) (6/6 correct) (0 false positive)
epoch 125: ( 268/376) 0.00001  (  0.0%) (7/7 correct) (0 false positive)
epoch 125: ( 269/376) 0.00001  (  0.0%) (7/7 correct) (0 false positive)
epoch 125: ( 270/376) 0.00004  (  0.0%) (4/4 correct) (0 false positive)
epoch 125: ( 271/376) 0.00001  (  0.0%) (5/5 correct) (0 false positive)
epoch 125: ( 272/376) 0.00004  (  0.0%) (4/4 correct) (0 false positive)
epoch 125: ( 273/376) 0.00000  (  0.0%) (5/5 correct) (0 false positive)
epoch 125: ( 274/376) 0.00000  (  0.0%) (6/6 correct) (0 false positive)
epoch 125: ( 275/376) 0.00002  (  0.0%) (4/4 correct) (0 false positive)
epoch 125: ( 276/376) 0.00001  (  0.0%) (5/5 correct) (0 false positive)
epoch 125: ( 277/376) 0.00016  (  0.0%) (3/3 correct) (0 false positive)
epoch 125: ( 278/376) 0.00011  (  0.0%) (6/6 correct) (0 false positive)
epoch 125: ( 279/376) 0.00000  (  0.0%) (6/6 correct) (0 false positive)
epoch 125: ( 280/376) 0.00000  (  0.0%) (5/5 correct) (0 false positive)
epoch 125: ( 281/376) 0.00000  (  0.0%) (5/5 correct) (0 false positive)
epoch 125: ( 282/376) 0.00000  (  0.0%) (6/6 correct) (0 false positive)
epoch 125: ( 283/376) 0.00000  (  0.0%) (4/4 correct) (0 false positive)
epoch 125: ( 284/376) 0.00001  (  0.0%) (5/5 correct) (0 false positive)
epoch 125: ( 285/376) 0.00001  (  0.0%) (4/4 correct) (0 false positive)
epoch 125: ( 286/376) 0.00000  (  0.0%) (6/6 correct) (0 false positive)
epoch 125: ( 287/376) 0.00002  (  0.0%) (4/4 correct) (0 false positive)
epoch 125: ( 288/376) 0.00000  (  0.0%) (6/6 correct) (0 false positive)
epoch 125: ( 289/376) 0.00001  (  0.0%) (5/5 correct) (0 false positive)
epoch 125: ( 290/376) 0.00001  (  0.0%) (4/4 correct) (0 false positive)
epoch 125: ( 291/376) 0.00000  (  0.0%) (5/5 correct) (0 false positive)
epoch 125: ( 292/376) 0.00000  (  0.0%) (6/6 correct) (0 false positive)
epoch 125: ( 293/376) 0.00002  (  0.0%) (5/5 correct) (0 false positive)
epoch 125: ( 294/376) 0.00001  (  0.0%) (5/5 correct) (0 false positive)
epoch 125: ( 295/376) 0.00000  (  0.0%) (6/6 correct) (0 false positive)
epoch 125: ( 296/376) 0.00000  (  0.0%) (4/4 correct) (0 false positive)
epoch 125: ( 297/376) 0.00000  (  0.0%) (5/5 correct) (0 false positive)
epoch 125: ( 298/376) 0.00000  (  0.0%) (6/6 correct) (0 false positive)
epoch 125: ( 299/376) 0.00000  (  0.0%) (5/5 correct) (0 false positive)
epoch 125: ( 300/376) 0.00001  (  0.0%) (7/7 correct) (0 false positive)
epoch 125: ( 301/376) 0.00000  (  0.0%) (5/5 correct) (0 false positive)
epoch 125: ( 302/376) 0.00000  (  0.0%) (6/6 correct) (0 false positive)
epoch 125: ( 303/376) 0.00003  (  0.0%) (4/4 correct) (0 false positive)
epoch 125: ( 304/376) 0.00001  (  0.0%) (7/7 correct) (0 false positive)
epoch 125: ( 305/376) 0.00000  (  0.0%) (5/5 correct) (0 false positive)
epoch 125: ( 306/376) 0.00000  (  0.0%) (5/5 correct) (0 false positive)
epoch 125: ( 307/376) 0.00002  (  0.0%) (5/5 correct) (0 false positive)
epoch 125: ( 308/376) 0.00001  (  0.0%) (5/5 correct) (0 false positive)
epoch 125: ( 309/376) 0.00000  (  0.0%) (5/5 correct) (0 false positive)
epoch 125: ( 310/376) 0.00002  (  0.0%) (5/5 correct) (0 false positive)
epoch 125: ( 311/376) 0.00001  (  0.0%) (7/7 correct) (0 false positive)
epoch 125: ( 312/376) 0.00001  (  0.0%) (5/5 correct) (0 false positive)
epoch 125: ( 313/376) 0.00001  (  0.0%) (7/7 correct) (0 false positive)
epoch 125: ( 314/376) 0.00000  (  0.0%) (6/6 correct) (0 false positive)
epoch 125: ( 315/376) 0.00001  (  0.0%) (7/7 correct) (0 false positive)
epoch 125: ( 316/376) 0.00000  (  0.0%) (5/5 correct) (0 false positive)
epoch 125: ( 317/376) 0.00001  (  0.0%) (5/5 correct) (0 false positive)
epoch 125: ( 318/376) 0.00001  (  0.0%) (5/5 correct) (0 false positive)
epoch 125: ( 319/376) 0.00003  (  0.0%) (4/4 correct) (0 false positive)
epoch 125: ( 320/376) 0.00000  (  0.0%) (5/5 correct) (0 false positive)
epoch 125: ( 321/376) 0.00000  (  0.0%) (4/4 correct) (0 false positive)
epoch 125: ( 322/376) 0.00001  (  0.0%) (4/4 correct) (0 false positive)
epoch 125: ( 323/376) 0.00007  (  0.0%) (3/3 correct) (0 false positive)
epoch 125: ( 324/376) 0.00002  (  0.0%) (8/8 correct) (0 false positive)
epoch 125: ( 325/376) 0.00000  (  0.0%) (6/6 correct) (0 false positive)
epoch 125: ( 326/376) 0.00000  (  0.0%) (4/4 correct) (0 false positive)
epoch 125: ( 327/376) 0.00004  (  0.0%) (4/4 correct) (0 false positive)
epoch 125: ( 328/376) 0.00000  (  0.0%) (6/6 correct) (0 false positive)
epoch 125: ( 329/376) 0.00001  (  0.0%) (7/7 correct) (0 false positive)
epoch 125: ( 330/376) 0.00001  (  0.0%) (5/5 correct) (0 false positive)
epoch 125: ( 331/376) 0.00009  (  0.0%) (3/3 correct) (0 false positive)
epoch 125: ( 332/376) 0.00000  (  0.0%) (5/5 correct) (0 false positive)
epoch 125: ( 333/376) 0.00002  (  0.0%) (8/8 correct) (0 false positive)
epoch 125: ( 334/376) 0.00001  (  0.0%) (5/5 correct) (0 false positive)
epoch 125: ( 335/376) 0.00001  (  0.0%) (5/5 correct) (0 false positive)
epoch 125: ( 336/376) 0.00000  (  0.0%) (6/6 correct) (0 false positive)
epoch 125: ( 337/376) 0.00014  (  0.0%) (3/3 correct) (0 false positive)
epoch 125: ( 338/376) 0.00001  (  0.0%) (4/4 correct) (0 false positive)
epoch 125: ( 339/376) 0.00000  (  0.0%) (5/5 correct) (0 false positive)
epoch 125: ( 340/376) 0.00000  (  0.0%) (6/6 correct) (0 false positive)
epoch 125: ( 341/376) 0.00000  (  0.0%) (5/5 correct) (0 false positive)
epoch 125: ( 342/376) 0.00000  (  0.0%) (6/6 correct) (0 false positive)
epoch 125: ( 343/376) 0.00000  (  0.0%) (6/6 correct) (0 false positive)
epoch 125: ( 344/376) 0.00004  (  0.0%) (4/4 correct) (0 false positive)
epoch 125: ( 345/376) 0.00000  (  0.0%) (5/5 correct) (0 false positive)
epoch 125: ( 346/376) 0.00000  (  0.0%) (6/6 correct) (0 false positive)
epoch 125: ( 347/376) 0.00000  (  0.0%) (5/5 correct) (0 false positive)
epoch 125: ( 348/376) 0.00000  (  0.0%) (5/5 correct) (0 false positive)
epoch 125: ( 349/376) 0.00001  (  0.0%) (4/4 correct) (0 false positive)
epoch 125: ( 350/376) 0.00004  (  0.0%) (4/4 correct) (0 false positive)
epoch 125: ( 351/376) 0.00000  (  0.0%) (6/6 correct) (0 false positive)
epoch 125: ( 352/376) 0.00001  (  0.0%) (7/7 correct) (0 false positive)
epoch 125: ( 353/376) 0.00002  (  0.0%) (5/5 correct) (0 false positive)
epoch 125: ( 354/376) 0.00003  (  0.0%) (4/4 correct) (0 false positive)
epoch 125: ( 355/376) 0.00001  (  0.0%) (4/4 correct) (0 false positive)
epoch 125: ( 356/376) 0.00003  (  0.0%) (4/4 correct) (0 false positive)
epoch 125: ( 357/376) 0.00001  (  0.0%) (6/6 correct) (0 false positive)
epoch 125: ( 358/376) 0.00001  (  0.0%) (5/5 correct) (0 false positive)
epoch 125: ( 359/376) 0.00000  (  0.0%) (6/6 correct) (0 false positive)
epoch 125: ( 360/376) 0.00001  (  0.0%) (7/7 correct) (0 false positive)
epoch 125: ( 361/376) 0.00003  (  0.0%) (4/4 correct) (0 false positive)
epoch 125: ( 362/376) 0.00001  (  0.0%) (5/5 correct) (0 false positive)
epoch 125: ( 363/376) 0.00001  (  0.0%) (5/5 correct) (0 false positive)
epoch 125: ( 364/376) 0.00005  (  0.0%) (5/5 correct) (0 false positive)
epoch 125: ( 365/376) 0.00216  (  0.2%) (4/4 correct) (0 false positive)
epoch 125: ( 366/376) 0.00007  (  0.0%) (3/3 correct) (0 false positive)
epoch 125: ( 367/376) 0.00001  (  0.0%) (5/5 correct) (0 false positive)
epoch 125: ( 368/376) 0.00003  (  0.0%) (4/4 correct) (0 false positive)
epoch 125: ( 369/376) 0.00000  (  0.0%) (5/5 correct) (0 false positive)
epoch 125: ( 370/376) 0.00001  (  0.0%) (5/5 correct) (0 false positive)
epoch 125: ( 371/376) 0.00001  (  0.0%) (5/5 correct) (0 false positive)
epoch 125: ( 372/376) 0.00000  (  0.0%) (5/5 correct) (0 false positive)
epoch 125: ( 373/376) 0.00000  (  0.0%) (5/5 correct) (0 false positive)
epoch 125: ( 374/376) 0.00000  (  0.0%) (5/5 correct) (0 false positive)
epoch 125: ( 375/376) 0.00000  (  0.0%) (5/5 correct) (0 false positive)
Classified (376/376) correctly
testing
epoch 125: (   0/94) 0.00002  (  0.0%) (5/5 correct) (0 false positive)
epoch 125: (   1/94) 0.00000  (  0.0%) (5/5 correct) (0 false positive)
epoch 125: (   2/94) 0.00110  (  0.1%) (4/4 correct) (0 false positive)
epoch 125: (   3/94) 0.00000  (  0.0%) (4/4 correct) (0 false positive)
epoch 125: (   4/94) 0.00001  (  0.0%) (4/4 correct) (0 false positive)
epoch 125: (   5/94) 0.00000  (  0.0%) (6/6 correct) (0 false positive)
epoch 125: (   6/94) 0.00002  (  0.0%) (5/5 correct) (0 false positive)
epoch 125: (   7/94) 0.00008  (  0.0%) (4/4 correct) (0 false positive)
epoch 125: (   8/94) 0.00003  (  0.0%) (5/5 correct) (0 false positive)
epoch 125: (   9/94) 0.00002  (  0.0%) (5/5 correct) (0 false positive)
epoch 125: (  10/94) 0.00000  (  0.0%) (4/4 correct) (0 false positive)
epoch 125: (  11/94) 0.01581  (  1.6%) (3/4 correct) (0 false positive)
epoch 125: (  12/94) 0.00000  (  0.0%) (6/6 correct) (0 false positive)
epoch 125: (  13/94) 0.00008  (  0.0%) (3/3 correct) (0 false positive)
epoch 125: (  14/94) 0.00001  (  0.0%) (7/7 correct) (0 false positive)
epoch 125: (  15/94) 0.00000  (  0.0%) (6/6 correct) (0 false positive)
epoch 125: (  16/94) 0.00001  (  0.0%) (4/4 correct) (0 false positive)
epoch 125: (  17/94) 0.00000  (  0.0%) (5/5 correct) (0 false positive)
epoch 125: (  18/94) 0.00000  (  0.0%) (5/5 correct) (0 false positive)
epoch 125: (  19/94) 0.00001  (  0.0%) (7/7 correct) (0 false positive)
epoch 125: (  20/94) 0.00001  (  0.0%) (4/4 correct) (0 false positive)
epoch 125: (  21/94) 0.00000  (  0.0%) (6/6 correct) (0 false positive)
epoch 125: (  22/94) 0.00000  (  0.0%) (6/6 correct) (0 false positive)
epoch 125: (  23/94) 0.00141  (  0.1%) (4/4 correct) (0 false positive)
epoch 125: (  24/94) 0.02474  (  2.5%) (3/4 correct) (1 false positive)
epoch 125: (  25/94) 0.00000  (  0.0%) (5/5 correct) (0 false positive)
epoch 125: (  26/94) 0.00000  (  0.0%) (5/5 correct) (0 false positive)
epoch 125: (  27/94) 0.00000  (  0.0%) (6/6 correct) (0 false positive)
epoch 125: (  28/94) 0.00002  (  0.0%) (5/5 correct) (0 false positive)
epoch 125: (  29/94) 0.00000  (  0.0%) (5/5 correct) (0 false positive)
epoch 125: (  30/94) 0.00000  (  0.0%) (5/5 correct) (0 false positive)
epoch 125: (  31/94) 0.00000  (  0.0%) (5/5 correct) (0 false positive)
epoch 125: (  32/94) 0.00001  (  0.0%) (5/5 correct) (0 false positive)
epoch 125: (  33/94) 0.00002  (  0.0%) (5/5 correct) (0 false positive)
epoch 125: (  34/94) 0.00002  (  0.0%) (4/4 correct) (0 false positive)
epoch 125: (  35/94) 0.00002  (  0.0%) (4/4 correct) (0 false positive)
epoch 125: (  36/94) 0.00000  (  0.0%) (5/5 correct) (0 false positive)
epoch 125: (  37/94) 0.00000  (  0.0%) (5/5 correct) (0 false positive)
epoch 125: (  38/94) 0.00012  (  0.0%) (4/4 correct) (0 false positive)
epoch 125: (  39/94) 0.00001  (  0.0%) (7/7 correct) (0 false positive)
epoch 125: (  40/94) 0.00008  (  0.0%) (4/4 correct) (0 false positive)
epoch 125: (  41/94) 0.00001  (  0.0%) (5/5 correct) (0 false positive)
epoch 125: (  42/94) 0.00001  (  0.0%) (4/4 correct) (0 false positive)
epoch 125: (  43/94) 0.00000  (  0.0%) (5/5 correct) (0 false positive)
epoch 125: (  44/94) 0.00000  (  0.0%) (6/6 correct) (0 false positive)
epoch 125: (  45/94) 0.00001  (  0.0%) (5/5 correct) (0 false positive)
epoch 125: (  46/94) 0.00000  (  0.0%) (6/6 correct) (0 false positive)
epoch 125: (  47/94) 0.00000  (  0.0%) (6/6 correct) (0 false positive)
epoch 125: (  48/94) 0.11126  ( 11.1%) (4/5 correct) (1 false positive)
epoch 125: (  49/94) 0.00000  (  0.0%) (6/6 correct) (0 false positive)
epoch 125: (  50/94) 0.00001  (  0.0%) (5/5 correct) (0 false positive)
epoch 125: (  51/94) 0.00001  (  0.0%) (5/5 correct) (0 false positive)
epoch 125: (  52/94) 0.00001  (  0.0%) (5/5 correct) (0 false positive)
epoch 125: (  53/94) 0.00001  (  0.0%) (5/5 correct) (0 false positive)
epoch 125: (  54/94) 0.02478  (  2.5%) (3/4 correct) (1 false positive)
epoch 125: (  55/94) 0.00000  (  0.0%) (5/5 correct) (0 false positive)
epoch 125: (  56/94) 0.00004  (  0.0%) (4/4 correct) (0 false positive)
epoch 125: (  57/94) 0.00001  (  0.0%) (7/7 correct) (0 false positive)
epoch 125: (  58/94) 0.03826  (  3.8%) (7/7 correct) (1 false positive)
epoch 125: (  59/94) 0.00000  (  0.0%) (5/5 correct) (0 false positive)
epoch 125: (  60/94) 0.00013  (  0.0%) (3/3 correct) (0 false positive)
epoch 125: (  61/94) 0.00000  (  0.0%) (5/5 correct) (0 false positive)
epoch 125: (  62/94) 0.00002  (  0.0%) (5/5 correct) (0 false positive)
epoch 125: (  63/94) 0.00000  (  0.0%) (6/6 correct) (0 false positive)
epoch 125: (  64/94) 0.01945  (  1.9%) (4/4 correct) (1 false positive)
epoch 125: (  65/94) 0.00000  (  0.0%) (6/6 correct) (0 false positive)
epoch 125: (  66/94) 0.00021  (  0.0%) (5/5 correct) (0 false positive)
epoch 125: (  67/94) 0.00004  (  0.0%) (4/4 correct) (0 false positive)
epoch 125: (  68/94) 0.00000  (  0.0%) (6/6 correct) (0 false positive)
epoch 125: (  69/94) 0.00001  (  0.0%) (5/5 correct) (0 false positive)
epoch 125: (  70/94) 0.00000  (  0.0%) (6/6 correct) (0 false positive)
epoch 125: (  71/94) 0.00000  (  0.0%) (6/6 correct) (0 false positive)
epoch 125: (  72/94) 0.00000  (  0.0%) (6/6 correct) (0 false positive)
epoch 125: (  73/94) 0.00000  (  0.0%) (5/5 correct) (0 false positive)
epoch 125: (  74/94) 0.00000  (  0.0%) (5/5 correct) (0 false positive)
epoch 125: (  75/94) 0.00000  (  0.0%) (5/5 correct) (0 false positive)
epoch 125: (  76/94) 0.00001  (  0.0%) (4/4 correct) (0 false positive)
epoch 125: (  77/94) 0.00021  (  0.0%) (3/3 correct) (0 false positive)
epoch 125: (  78/94) 0.00000  (  0.0%) (6/6 correct) (0 false positive)
epoch 125: (  79/94) 0.00018  (  0.0%) (3/3 correct) (0 false positive)
epoch 125: (  80/94) 0.00000  (  0.0%) (6/6 correct) (0 false positive)
epoch 125: (  81/94) 0.00049  (  0.0%) (5/5 correct) (0 false positive)
epoch 125: (  82/94) 0.00000  (  0.0%) (5/5 correct) (0 false positive)
epoch 125: (  83/94) 0.00001  (  0.0%) (5/5 correct) (0 false positive)
epoch 125: (  84/94) 0.00002  (  0.0%) (4/4 correct) (0 false positive)
epoch 125: (  85/94) 0.00000  (  0.0%) (5/5 correct) (0 false positive)
epoch 125: (  86/94) 0.00146  (  0.1%) (3/3 correct) (0 false positive)
epoch 125: (  87/94) 0.00002  (  0.0%) (5/5 correct) (0 false positive)
epoch 125: (  88/94) 0.00001  (  0.0%) (5/5 correct) (0 false positive)
epoch 125: (  89/94) 0.00001  (  0.0%) (7/7 correct) (0 false positive)
epoch 125: (  90/94) 0.00000  (  0.0%) (6/6 correct) (0 false positive)
epoch 125: (  91/94) 0.00000  (  0.0%) (6/6 correct) (0 false positive)
epoch 125: (  92/94) 0.00004  (  0.0%) (4/4 correct) (0 false positive)
epoch 125: (  93/94) 0.00003  (  0.0%) (6/6 correct) (0 false positive)
Classified (88/94) correctly
